<?xml version="1.0" encoding="UTF-8" standalone="no"?>
<!-- Created with Inkscape (http://www.inkscape.org/) -->

<svg
   xmlns:dc="http://purl.org/dc/elements/1.1/"
   xmlns:cc="http://creativecommons.org/ns#"
   xmlns:rdf="http://www.w3.org/1999/02/22-rdf-syntax-ns#"
   xmlns:svg="http://www.w3.org/2000/svg"
   xmlns="http://www.w3.org/2000/svg"
   xmlns:sodipodi="http://sodipodi.sourceforge.net/DTD/sodipodi-0.dtd"
   xmlns:inkscape="http://www.inkscape.org/namespaces/inkscape"
   width="282.22223mm"
   height="282.22223mm"
   viewBox="0 0 1000 1000"
   id="svg2"
   version="1.1"
   inkscape:version="0.91 r13725"
   sodipodi:docname="logo-white-no-initial.svg">
  <defs
     id="defs4" />
  <sodipodi:namedview
     id="base"
     pagecolor="#ffffff"
     bordercolor="#666666"
     borderopacity="1.0"
     inkscape:pageopacity="0.0"
     inkscape:pageshadow="2"
     inkscape:zoom="0.35"
     inkscape:cx="556.42858"
     inkscape:cy="160"
     inkscape:document-units="px"
     inkscape:current-layer="g4146"
     showgrid="false"
     fit-margin-top="0"
     fit-margin-left="0"
     fit-margin-right="0"
     fit-margin-bottom="0"
     inkscape:window-width="2048"
     inkscape:window-height="1089"
     inkscape:window-x="1672"
     inkscape:window-y="-8"
     inkscape:window-maximized="1" />
  <metadata
     id="metadata7">
    <rdf:RDF>
      <cc:Work
         rdf:about="">
        <dc:format>image/svg+xml</dc:format>
        <dc:type
           rdf:resource="http://purl.org/dc/dcmitype/StillImage" />
        <dc:title></dc:title>
      </cc:Work>
    </rdf:RDF>
  </metadata>
  <g
     inkscape:label="Layer 1"
     inkscape:groupmode="layer"
     id="layer1"
     transform="translate(668.57144,307.63779)">
    <g
       id="g4146"
       transform="translate(-668.57149,-307.63779)">
      <g
         transform="translate(83.428551,139.35208)"
         id="layer1-7"
         inkscape:label="Layer 1">
        <rect
           y="-139.35208"
           x="-83.428497"
           height="1000"
           width="1000"
           id="rect4472"
           style="opacity:1;fill:#ffffff;fill-opacity:1;stroke:none;stroke-width:2;stroke-miterlimit:4;stroke-dasharray:none;stroke-opacity:1" />
      </g>
      <g
         inkscape:label="Layer 2"
         id="layer2">
        <path
           sodipodi:nodetypes="ssssssssssssssscssssssscccccsssscccccccsssscsscssscsscsscccssssssscccsssssssssssssssscssscssssscsscscsscsssssscssscssscssssssscccssssscsssccscsssssssscssss"
           inkscape:connector-curvature="0"
           id="path4749"
           d="M 416.40232,625.95742 C 343.44317,563.25971 334.47435,555.96483 331.3141,556.75025 329.37116,557.23315 315.33875,561.78233 300.13097,566.85958 284.92317,571.93683 271.75152,575.79738 270.86062,575.43859 268.22177,574.37588 158.28576,405.2162 158.28576,402.2185 158.28576,400.31384 159.4332,399.23977 162.02964,398.71402 164.08878,398.29706 192.11684,393.34868 224.31422,387.71763 256.5116,382.08657 284.1152,377.18963 285.65556,376.83553 288.28673,376.23065 288.65743,374.02776 291.78191,340.4298 294.49454,311.26055 295.48999,304.59493 297.1818,304.27199 298.3509,304.04883 313.04585,316.90946 330.85848,333.74489 352.78962,354.47291 363.19568,363.43798 364.8617,363.03948 370.19079,361.76479 700.11588,303.95697 702.06176,303.95697 703.21575,303.95697 704.46713,305.3354 704.84262,307.02015 705.21811,308.7049 709.48628,351.96582 714.32741,403.15554 719.16857,454.34526 723.42494,496.5232 723.78604,496.88429 724.14713,497.24539 750.15625,475.42669 781.58409,448.3983 813.01192,421.36991 839.39806,399.25578 840.21997,399.25578 841.04188,399.25578 841.71435,400.46299 841.71435,401.93846 841.71435,404.73023 732.41345,572.97376 728.75595,575.81185 724.269,579.29358 502.35644,696.04347 500.22635,696.04302 498.97872,696.04276 461.2579,664.50423 416.40232,625.95742 Z M 496.95463,548.65644 496.59653,501.8146 418.76189,527.7953 340.92726,553.77599 418.76189,620.62096 496.59653,687.46591 496.95463,641.4821 C 497.15159,616.19099 497.15159,574.41946 496.95463,548.65644 Z M 640.04027,487.90469 C 615.9122,463.48303 592.43316,439.65934 587.8646,434.9632 L 579.55816,426.42475 541.14051,462.73707 502.72288,499.04938 502.72288,593.49231 502.72288,687.93526 593.31617,610.12148 683.90945,532.30772 Z M 625.93062,624.22192 C 677.59619,596.91229 720.62364,574.15962 721.54718,573.66043 722.63198,573.07408 716.84927,566.4157 705.21025,554.84961 L 687.19414,536.94643 609.59368,603.70422 C 566.91343,640.42101 529.849,672.29464 527.22829,674.5345 L 522.46335,678.607 527.22829,676.24138 C 529.849,674.9403 574.26506,651.53153 625.93062,624.22192 Z M 308.29288,558.65774 329.64662,551.56688 323.94911,546.60783 C 311.25549,535.55941 314.61827,534.87312 297.77601,551.94941 289.56941,560.27006 283.77387,566.77878 284.89703,566.41323 286.0202,566.04769 296.54833,562.55772 308.29288,558.65774 Z M 292.16105,549.23538 308.23167,533.12278 294.60601,521.32405 280.98035,509.52532 280.23806,515.31372 C 279.8298,518.49734 278.85821,528.14742 278.07893,536.75835 277.29968,545.36927 276.31324,555.3246 275.88687,558.88128 275.4605,562.43797 275.33188,565.34799 275.60103,565.34799 275.87019,565.34799 283.32221,558.09732 292.16105,549.23538 Z M 722.6299,542.71308 C 721.46423,530.82704 720.17509,518.49734 719.76512,515.31372 L 719.01976,509.52532 705.3941,521.32405 691.76844,533.12278 707.79303,549.18925 C 716.60657,558.02579 724.02727,565.04607 724.28347,564.78986 724.53968,564.53366 723.79557,554.5991 722.6299,542.71308 Z M 273.39134,532.82001 C 275.83948,505.33983 275.83742,505.03468 273.19016,502.86896 271.71917,501.66555 248.859,482.05972 222.38978,459.30043 195.92057,436.54115 174.4978,418.52072 174.78366,419.25501 176.92832,424.76409 269.39,563.50356 270.06149,562.22012 270.53256,561.31974 272.031,548.08969 273.39134,532.82001 Z M 778.93568,490.79912 C 804.47863,451.66919 825.37741,419.34704 825.37741,418.97214 825.37741,418.43977 734.36174,495.98803 726.08971,503.56844 724.40277,505.11434 724.46216,508.94746 726.53469,532.28705 729.07531,560.8982 729.71682,564.94345 731.4215,563.10256 732.01133,562.46561 753.39271,529.92906 778.93568,490.79912 Z M 416.03139,522.77254 494.73373,496.53401 457.95007,461.84937 C 437.71904,442.77281 420.89924,427.16472 420.57271,427.16472 420.24619,427.16472 396.62789,450.84733 368.08761,479.79274 L 316.1962,532.42075 325.81028,540.7159 C 331.09803,545.27824 335.85291,549.01105 336.3767,549.01105 336.90049,549.01105 372.74511,537.20372 416.03139,522.77254 Z M 354.56626,485.36506 C 378.09761,461.59141 401.60813,437.62889 406.81189,432.11501 L 416.27325,422.0898 406.52192,413.05525 C 401.15869,408.08626 388.448,396.13521 378.27594,386.49737 L 359.78127,368.97403 326.76375,374.7533 C 308.6041,377.93191 293.58522,380.66891 293.38846,380.83552 293.07552,381.10047 282.99799,484.02739 281.94951,497.66712 281.56371,502.68601 281.94684,503.15992 296.49891,515.66326 304.71902,522.72609 311.52048,528.52392 311.61328,528.54732 311.70609,528.57072 331.03492,509.13871 354.56626,485.36506 Z M 703.30741,515.56034 C 712.60877,507.58673 718.40767,501.64361 718.25166,500.24446 718.11143,498.98696 714.14583,457.03297 709.43923,407.01335 704.73261,356.99373 700.47455,315.40973 699.97687,314.60446 698.98022,312.99186 585.08828,420.14066 585.08828,422.69092 585.08828,423.93285 686.00137,528.0031 687.65118,528.46259 687.90255,528.53259 694.94786,522.72658 703.30741,515.56034 Z M 282.16759,440.16726 C 285.20072,408.46543 287.51515,382.36772 287.31076,382.17235 286.44693,381.34666 168.01969,402.75947 167.84695,403.77259 167.67766,404.76541 275.60858,498.5047 276.35034,498.00908 276.5167,497.89792 279.13446,471.8691 282.16759,440.16726 Z M 497.27723,419.40671 497.27723,348.34309 461.54018,384.91948 C 441.8848,405.0365 425.80313,422.00063 425.80313,422.61756 425.80313,423.57993 495.90283,490.47035 496.91137,490.47035 497.1126,490.47035 497.27723,458.49172 497.27723,419.40671 Z M 542.20381,453.7885 C 559.80006,437.1693 574.19698,423.1027 574.19698,422.52941 574.19698,421.95612 558.11531,405.04328 538.45993,384.9453 L 502.72288,348.40356 502.72288,419.69167 502.72288,490.97977 506.46676,487.49251 C 508.5259,485.57451 524.60757,470.40771 542.20381,453.7885 Z M 490.12287,346.72103 C 489.33101,345.92917 370.27293,366.76658 368.91713,367.93432 368.32967,368.4403 379.66342,380.01443 394.10324,393.65461 L 420.35748,418.45494 455.53408,382.88189 C 474.88121,363.31671 490.44616,347.04433 490.12287,346.72103 Z M 640.63008,360.52213 C 668.93173,333.72507 691.83485,311.5474 691.52588,311.23844 690.73162,310.44417 509.09204,342.32487 507.72334,343.49878 507.10409,344.02988 522.97974,361.10733 543.00257,381.44864 L 579.40768,418.43287 584.29009,413.83846 C 586.97542,411.31153 612.32842,387.31918 640.63008,360.52213 Z M 829.63531,414.57166 C 831.32873,412.41238 831.28058,412.36423 829.1213,414.05765 827.81094,415.08531 826.73882,416.15742 826.73882,416.44012 826.73882,417.56061 827.8568,416.83943 829.63531,414.57166 Z M 354.63324,363.7968 C 354.09154,363.35302 341.80368,351.7456 327.32691,338.00253 310.10421,321.6527 300.65891,313.57592 300.00287,314.63742 299.45142,315.52968 297.91838,328.65433 296.59609,343.80328 295.27382,358.95224 293.93519,372.29932 293.62137,373.46346 293.14039,375.24764 297.96402,374.71812 324.33447,370.09185 341.54051,367.07335 355.17495,364.24058 354.63324,363.7968 Z"
           style="opacity:1;fill:#e10000;fill-opacity:1;stroke-width:0.10000001;stroke-miterlimit:4;stroke-dasharray:none" />
      </g>
    </g>
  </g>
</svg>
